<?xml version="1.0" encoding="iso-8859-1"?>
<!-- Generator: Adobe Illustrator 19.0.0, SVG Export Plug-In . SVG Version: 6.00 Build 0)  -->
<svg version="1.1" id="Capa_1" xmlns="http://www.w3.org/2000/svg" xmlns:xlink="http://www.w3.org/1999/xlink" x="0px" y="0px"
	 viewBox="0 0 512 512" style="enable-background:new 0 0 512 512;" xml:space="preserve">
<path style="fill:#FFCD00;" d="M15,512c-8.284,0-15-6.716-15-15V15C0,6.716,6.716,0,15,0s15,6.716,15,15v482
	C30,505.284,23.284,512,15,512z"/>
<path style="fill:#FF9811;" d="M497,512c-8.284,0-15-6.716-15-15V15c0-8.284,6.716-15,15-15s15,6.716,15,15v482
	C512,505.284,505.284,512,497,512z"/>
<path style="fill:#CAFAF4;" d="M497,32.134H15c-8.284,0-15,6.716-15,15v192.8c0,8.284,6.716,15,15,15h482c8.284,0,15-6.716,15-15
	v-192.8C512,38.85,505.284,32.134,497,32.134z"/>
<path style="fill:#9BFBFF;" d="M497,32.134H256v222.8h241c8.284,0,15-6.716,15-15v-192.8C512,38.85,505.284,32.134,497,32.134z"/>
<rect x="111.4" y="32.13" style="fill:#007175;" width="96.4" height="109.27"/>
<g>
	<path style="fill:#005457;" d="M400.602,141.405v113.528H497c8.284,0,15-6.716,15-15v-98.528H400.602z"/>
	<rect x="304.2" y="32.13" style="fill:#005457;" width="96.4" height="109.27"/>
</g>
<g>
	<rect x="207.8" y="141.41" style="fill:#007175;" width="96.4" height="113.53"/>
	<path style="fill:#007175;" d="M0,141.405v98.528c0,8.284,6.716,15,15,15h96.4V141.405H0z"/>
</g>
<rect x="256" y="141.41" style="fill:#005457;" width="48.2" height="113.53"/>
<g>
</g>
<g>
</g>
<g>
</g>
<g>
</g>
<g>
</g>
<g>
</g>
<g>
</g>
<g>
</g>
<g>
</g>
<g>
</g>
<g>
</g>
<g>
</g>
<g>
</g>
<g>
</g>
<g>
</g>
</svg>
